{
  "Add": {
    "selector": "#add"
  },
  "store":
  {
    "selector":"Default Store View"
  },
  "From": {
    "value": "01:00 pm",
    "selector": "#amasty_deliverydate_time_from"
  },

  "To": {
    "value": "03:00 pm",
    "selector": "#amasty_deliverydate_time_to"
  },

  
  

  "Save": {
    "selector": "#save"
  },



  "Delete_btn": {
    "selector": "#delete"
  },
  "confirm": {
    "selector": ".action-primary"
  }
}
